de\thbingen\epro\config\FanoutExchangeConfiguration.class
de\thbingen\epro\listener\Consumer.class
de\thbingen\epro\config\RabbitConfiguration.class
de\thbingen\epro\config\DirectExchangeConfiguration.class
de\thbingen\epro\config\TopicExchangeConfiguration.class
