E:\Users\Donni\Documents\epro\vl6-epro\src\main\java\de\thbingen\epro\listener\Consumer.java
E:\Users\Donni\Documents\epro\vl6-epro\src\main\java\de\thbingen\epro\config\DirectExchangeConfiguration.java
E:\Users\Donni\Documents\epro\vl6-epro\src\main\java\de\thbingen\epro\config\FanoutExchangeConfiguration.java
E:\Users\Donni\Documents\epro\vl6-epro\src\main\java\de\thbingen\epro\config\RabbitConfiguration.java
E:\Users\Donni\Documents\epro\vl6-epro\src\main\java\de\thbingen\epro\config\TopicExchangeConfiguration.java
